ID,EntityType
0,Location,images/entityImages/entity_0
1,Location,images/entityImages/entity_0
2,Location,images/entityImages/entity_0
3,Location,images/entityImages/entity_0
4,Location,images/entityImages/entity_0
5,Character,images/entityImages/entity_1
6,Character,images/entityImages/entity_1
7,Character,images/entityImages/entity_1
8,Character,images/entityImages/entity_1
9,Character,images/entityImages/entity_1
10,Character,images/entityImages/entity_2
11,Character,images/entityImages/entity_2
12,Character,images/entityImages/entity_2
13,Character,images/entityImages/entity_2
14,Character,images/entityImages/entity_2
15,Event,images/entityImages/entity_0
16,Event,images/entityImages/entity_0
17,Event,images/entityImages/entity_0
18,Event,images/entityImages/entity_0
19,Event,images/entityImages/entity_1
20,Event,images/entityImages/entity_1
21,Event,images/entityImages/entity_1
22,Event,images/entityImages/entity_1
23,Event,images/entityImages/entity_1
24,Event,images/entityImages/entity_0
25,PointOfInterest,images/entityImages/entity_0
26,PointOfInterest,images/entityImages/entity_0
27,PointOfInterest,images/entityImages/entity_2
28,PointOfInterest,images/entityImages/entity_2
29,PointOfInterest,images/entityImages/entity_2
30,PointOfInterest,images/entityImages/entity_2
31,PointOfInterest,images/entityImages/entity_2
32,PointOfInterest,images/entityImages/entity_0
33,PointOfInterest,images/entityImages/entity_0
34,PointOfInterest,images/entityImages/entity_0
35,EntityGroup,
36,EntityGroup,
37,EntityGroup,
38,EntityGroup,
39,EntityGroup,
40,EntityGroup,
41,EntityGroup,
42,EntityGroup,
43,EntityGroup,
44,EntityGroup,
45,EntityGroup,
46,EntityGroup,
47,EntityGroup,
48,EntityGroup,
49,EntityGroup,
50,Character,images/entityImages/entity_0