Entity ID,Child Entity ID
0,35
0,36
0,37
1,38
1,39
1,40
2,41
2,42
2,43
3,44
3,45
3,46
4,47
4,48
4,49
35,5
35,6
38,7
38,8
41,9
41,10
44,11
47,12
47,13
47,14
36,15
36,16
36,17
39,18
39,19
39,20
42,21
45,22
48,23
48,24
37,25
37,26
37,27
37,28
40,29
40,30
40,31
43,32
46,33
49,34
0,50