ID,Type
35,Character
36,Event
37,PointOfInterest
38,Character
39,Event
40,PointOfInterest
41,Character
42,Event
43,PointOfInterest
44,Character
45,Event
46,PointOfInterest
47,Character
48,Event
49,PointOfInterest